{
	"bbsQaTotalCount": "45",
	"category": "金融学类 (0203)",
	"courseCover": "https://image.zhihuishu.com/zhs/ablecommons/demo/202011/51713fb18e5c4008b83b32ad9b281504.jpeg",
	"courseId": "1000060041",
	"courseModeName": "在线学习+直播互动",
	"courseName": "文化市场营销学",
	"coursePackageName": null,
	"course_details": {
		"background": "1）中国的文化产业不仅正在造福于中国经济，而且也正在重构世界经济秩序；\n2）文化产业实践发展、理论研究和学科建设的关键在于培养适应新时代要求的应用型复合型文科人才；\n3）文化产业专业技能型管理人才培养的基本模式是创新理论教学与实践操作的双重模式。",
		"design principle": "1）强调文化营销学知识的实用性；\n2）文化市场营销案例选择的前沿性；\n3）课程环节设置旨在拓宽学生视野，引发思考。",
		"target": "1）使学生能正确理解文化市场营销理论；\n2）引导学生初步掌握文化产品营销策划流程以及文化产品营销策划书写作技巧；\n3）提高学生对文化产业项目的策划、宣传、开发、经营和管理能力。"
	},
	"credit": 2.0,
	"fromType": null,
	"hours": 29,
	"introduction": "文化市场营销学是以文化企业为中心，以满足文化消费者的需求为出发点，以文化产品的营销规划、价格制定、渠道扩散、销售促进为主要内容，研究文化企业如何把文化产品与文化服务有效地送达文化消费者的一门学问。该课程最大的亮点在于用案例导入文化市场营销理论，再用理论解析具体案例，最后回归到具体案例可以操作的环节，强调理论与实践的紧密结合，做到学以致用。",
	"meetings": 6,
	"personTotalCount": "27",
	"runTermCount": 2,
	"schoolName": "四川音乐学院",
	"schoolTotalCount": "0",
	"studentCount": 27,
	"teacherName": "付斌",
	"teachers": [
		{
			"introduction": "付斌，副教授，男，汉族，中共党员，籍贯四川新津，管理学博士；英语专业八级；高级职业经理人、高级策划师、高级人力资源师、高级管理咨询师。公开发表学术论文20余篇，独著《管理学原理》、《音乐产业运作管理》、《文化创意策划理论与实践》，参与、主持各类文化创意策划项目100余项，负责完成各级项目10项。主要研究方向为文化产业管理，艺术管理，中医药健康管理。",
			"role": "课程负责人",
			"teacherName": "付斌",
			"teacherSchool": "四川音乐学院",
			"title": "副教授"
		},
		{
			"introduction": "四川音乐学院艺术学理论与管理学院专业教师，获西南财经大学管理学和四川音乐学院艺术学双硕士学位。四川省音乐文学学会理事，中国音乐家协会爵士乐学会会员。先后在国内各级期刊发表专业学术论文十余篇，主研、参研包括国家社科基金国家级项目在内的各级科研项目共六项，曾获四川省第十四次哲学社会科学优秀成果三等奖。",
			"role": "团队教师",
			"teacherName": "余珉露",
			"teacherSchool": "四川音乐学院",
			"title": "助教"
		},
		{
			"introduction": "四川音乐学院讲师，毕业于西南财经大学，硕士研究生，且自幼学习钢琴。本人从事教学工作以来，多次获得国家级优秀指导教师荣誉称号及证书。先后在包括北大核心期刊在内的国内外各级期刊中，发表十余篇中文及英文论文，并主持两项省级科研课题。",
			"role": "团队教师",
			"teacherName": "肖虹飞",
			"teacherSchool": "四川音乐学院",
			"title": "讲师"
		}
	],
	"terms": [
		{
			"bbsQaCount": "0",
			"judge": {},
			"personCount": "0",
			"query": [
				{
					"queryId": "562180583",
					"queryPassing_by": "0",
					"queryReplyCount": "0",
					"queryTime": "2020.12.23",
					"queryTitle": "你认为“一带一路”对中国会展营销有哪些影响？",
					"queryUser": "付斌·四川音乐学院",
					"queryUserId": "808878297",
					"queryWatched": "0"
				},
				{
					"queryId": "562180581",
					"queryPassing_by": "0",
					"queryReplyCount": "0",
					"queryTime": "2020.12.23",
					"queryTitle": "你怎么看待我国会展营销目前的发展趋势？",
					"queryUser": "付斌·四川音乐学院",
					"queryUserId": "808878297",
					"queryWatched": "0"
				},
				{
					"queryId": "562180580",
					"queryPassing_by": "0",
					"queryReplyCount": "0",
					"queryTime": "2020.12.23",
					"queryTitle": "如何打造会展品牌？",
					"queryUser": "付斌·四川音乐学院",
					"queryUserId": "808878297",
					"queryWatched": "0"
				},
				{
					"queryId": "562180575",
					"queryPassing_by": "0",
					"queryReplyCount": "0",
					"queryTime": "2020.12.23",
					"queryTitle": "我们可以采取哪些方法来激发人们的文化旅游动机？",
					"queryUser": "付斌·四川音乐学院",
					"queryUserId": "808878297",
					"queryWatched": "0"
				},
				{
					"queryId": "562180573",
					"queryPassing_by": "0",
					"queryReplyCount": "0",
					"queryTime": "2020.12.23",
					"queryTitle": "你是如何理解文化旅游产品的？",
					"queryUser": "付斌·四川音乐学院",
					"queryUserId": "808878297",
					"queryWatched": "0"
				},
				{
					"queryId": "562180572",
					"queryPassing_by": "0",
					"queryReplyCount": "0",
					"queryTime": "2020.12.23",
					"queryTitle": "谈谈文化旅游市场营销政策环境？",
					"queryUser": "付斌·四川音乐学院",
					"queryUserId": "808878297",
					"queryWatched": "0"
				},
				{
					"queryId": "562180570",
					"queryPassing_by": "0",
					"queryReplyCount": "0",
					"queryTime": "2020.12.23",
					"queryTitle": "你认为我国娱乐市场发展的前景如何？",
					"queryUser": "付斌·四川音乐学院",
					"queryUserId": "808878297",
					"queryWatched": "0"
				},
				{
					"queryId": "562180568",
					"queryPassing_by": "0",
					"queryReplyCount": "0",
					"queryTime": "2020.12.23",
					"queryTitle": "你怎么看待娱乐市场与我国文化市场的关系？",
					"queryUser": "付斌·四川音乐学院",
					"queryUserId": "808878297",
					"queryWatched": "0"
				},
				{
					"queryId": "562180564",
					"queryPassing_by": "0",
					"queryReplyCount": "0",
					"queryTime": "2020.12.23",
					"queryTitle": "谈谈对网易云音乐成功的看法？",
					"queryUser": "付斌·四川音乐学院",
					"queryUserId": "808878297",
					"queryWatched": "0"
				},
				{
					"queryId": "562180561",
					"queryPassing_by": "0",
					"queryReplyCount": "0",
					"queryTime": "2020.12.23",
					"queryTitle": "谈谈未来的演出市场将会如何？",
					"queryUser": "付斌·四川音乐学院",
					"queryUserId": "808878297",
					"queryWatched": "0"
				},
				{
					"queryId": "562180559",
					"queryPassing_by": "0",
					"queryReplyCount": "0",
					"queryTime": "2020.12.23",
					"queryTitle": "当前旅游演出市场呈现出什么样的趋势？",
					"queryUser": "付斌·四川音乐学院",
					"queryUserId": "808878297",
					"queryWatched": "0"
				},
				{
					"queryId": "562180556",
					"queryPassing_by": "0",
					"queryReplyCount": "0",
					"queryTime": "2020.12.23",
					"queryTitle": "谈谈传统演出市场是怎样的？",
					"queryUser": "付斌·四川音乐学院",
					"queryUserId": "808878297",
					"queryWatched": "0"
				},
				{
					"queryId": "562180554",
					"queryPassing_by": "0",
					"queryReplyCount": "0",
					"queryTime": "2020.12.23",
					"queryTitle": "你认为我国音像市场发展的前景如何？",
					"queryUser": "付斌·四川音乐学院",
					"queryUserId": "808878297",
					"queryWatched": "0"
				},
				{
					"queryId": "562180552",
					"queryPassing_by": "0",
					"queryReplyCount": "0",
					"queryTime": "2020.12.23",
					"queryTitle": "你怎么看待数字音乐的快速发展？",
					"queryUser": "付斌·四川音乐学院",
					"queryUserId": "808878297",
					"queryWatched": "0"
				},
				{
					"queryId": "562180550",
					"queryPassing_by": "0",
					"queryReplyCount": "0",
					"queryTime": "2020.12.23",
					"queryTitle": "谈谈对当前音像市场现状的认识？",
					"queryUser": "付斌·四川音乐学院",
					"queryUserId": "808878297",
					"queryWatched": "0"
				},
				{
					"queryId": "562180548",
					"queryPassing_by": "0",
					"queryReplyCount": "0",
					"queryTime": "2020.12.23",
					"queryTitle": "你认为互联网的高速发展对报业市场营销有哪些影响？",
					"queryUser": "付斌·四川音乐学院",
					"queryUserId": "808878297",
					"queryWatched": "0"
				},
				{
					"queryId": "562180546",
					"queryPassing_by": "0",
					"queryReplyCount": "0",
					"queryTime": "2020.12.23",
					"queryTitle": "你怎么看待报业市场的促销策略？",
					"queryUser": "付斌·四川音乐学院",
					"queryUserId": "808878297",
					"queryWatched": "0"
				},
				{
					"queryId": "562180544",
					"queryPassing_by": "0",
					"queryReplyCount": "0",
					"queryTime": "2020.12.23",
					"queryTitle": "谈谈对当前报业市场发展趋势的认识？",
					"queryUser": "付斌·四川音乐学院",
					"queryUserId": "808878297",
					"queryWatched": "0"
				},
				{
					"queryId": "562180543",
					"queryPassing_by": "0",
					"queryReplyCount": "0",
					"queryTime": "2020.12.23",
					"queryTitle": "图书市场营销如何才以更好的实现线上线下融合发展？",
					"queryUser": "付斌·四川音乐学院",
					"queryUserId": "808878297",
					"queryWatched": "0"
				},
				{
					"queryId": "562180541",
					"queryPassing_by": "0",
					"queryReplyCount": "0",
					"queryTime": "2020.12.23",
					"queryTitle": "怎样测量图书营销渠道中中间商的绩效？",
					"queryUser": "付斌·四川音乐学院",
					"queryUserId": "808878297",
					"queryWatched": "0"
				},
				{
					"queryId": "562180539",
					"queryPassing_by": "0",
					"queryReplyCount": "0",
					"queryTime": "2020.12.23",
					"queryTitle": "参考群体在读者购买行为中的作用是什么？",
					"queryUser": "付斌·四川音乐学院",
					"queryUserId": "808878297",
					"queryWatched": "0"
				},
				{
					"queryId": "562180536",
					"queryPassing_by": "0",
					"queryReplyCount": "0",
					"queryTime": "2020.12.23",
					"queryTitle": "市场营销管理的实质为什么是“需求管理”？",
					"queryUser": "付斌·四川音乐学院",
					"queryUserId": "808878297",
					"queryWatched": "0"
				},
				{
					"queryId": "562180532",
					"queryPassing_by": "0",
					"queryReplyCount": "0",
					"queryTime": "2020.12.23",
					"queryTitle": "文化市场营销部门与其他部门之间如何才能建立起和谐有效的关系？",
					"queryUser": "付斌·四川音乐学院",
					"queryUserId": "808878297",
					"queryWatched": "0"
				},
				{
					"queryId": "562180531",
					"queryPassing_by": "0",
					"queryReplyCount": "0",
					"queryTime": "2020.12.23",
					"queryTitle": "文化市场营销部门在文化企业计划中起到怎样的作用？",
					"queryUser": "付斌·四川音乐学院",
					"queryUserId": "808878297",
					"queryWatched": "0"
				},
				{
					"queryId": "562180528",
					"queryPassing_by": "0",
					"queryReplyCount": "0",
					"queryTime": "2020.12.23",
					"queryTitle": "什么是文化产品品牌？文化产品品牌有哪些功能？",
					"queryUser": "付斌·四川音乐学院",
					"queryUserId": "808878297",
					"queryWatched": "0"
				},
				{
					"queryId": "562180526",
					"queryPassing_by": "0",
					"queryReplyCount": "0",
					"queryTime": "2020.12.23",
					"queryTitle": "文化产品在生命周期不同阶段的营销策略各有哪些？",
					"queryUser": "付斌·四川音乐学院",
					"queryUserId": "808878297",
					"queryWatched": "0"
				},
				{
					"queryId": "562180524",
					"queryPassing_by": "0",
					"queryReplyCount": "0",
					"queryTime": "2020.12.23",
					"queryTitle": "《英雄联盟》的营销组合运用有哪些方面值得借鉴？",
					"queryUser": "付斌·四川音乐学院",
					"queryUserId": "808878297",
					"queryWatched": "0"
				},
				{
					"queryId": "562180523",
					"queryPassing_by": "0",
					"queryReplyCount": "0",
					"queryTime": "2020.12.23",
					"queryTitle": "文化企业如何才能较好地把握消费者的消费行为？",
					"queryUser": "付斌·四川音乐学院",
					"queryUserId": "808878297",
					"queryWatched": "0"
				},
				{
					"queryId": "562180521",
					"queryPassing_by": "0",
					"queryReplyCount": "0",
					"queryTime": "2020.12.23",
					"queryTitle": "文化消费者的行为过程对文化企业有什么作用？",
					"queryUser": "付斌·四川音乐学院",
					"queryUserId": "808878297",
					"queryWatched": "0"
				},
				{
					"queryId": "562180519",
					"queryPassing_by": "0",
					"queryReplyCount": "0",
					"queryTime": "2020.12.23",
					"queryTitle": "文化消费者满意与忠诚的关系如何？",
					"queryUser": "付斌·四川音乐学院",
					"queryUserId": "808878297",
					"queryWatched": "0"
				},
				{
					"queryId": "562180516",
					"queryPassing_by": "0",
					"queryReplyCount": "0",
					"queryTime": "2020.12.23",
					"queryTitle": "用市场追随者的相关理论分析四川电视台的困境",
					"queryUser": "付斌·四川音乐学院",
					"queryUserId": "808878297",
					"queryWatched": "0"
				},
				{
					"queryId": "562180512",
					"queryPassing_by": "0",
					"queryReplyCount": "0",
					"queryTime": "2020.12.23",
					"queryTitle": "讨论如何通过差异化战略解决我国综艺节目缺少创新性的问题",
					"queryUser": "付斌·四川音乐学院",
					"queryUserId": "808878297",
					"queryWatched": "0"
				},
				{
					"queryId": "562180508",
					"queryPassing_by": "0",
					"queryReplyCount": "0",
					"queryTime": "2020.12.23",
					"queryTitle": "使用本章节相关内容分析《乘风破浪的姐姐》节目的竞争策略",
					"queryUser": "付斌·四川音乐学院",
					"queryUserId": "808878297",
					"queryWatched": "0"
				},
				{
					"queryId": "562180505",
					"queryPassing_by": "0",
					"queryReplyCount": "0",
					"queryTime": "2020.12.23",
					"queryTitle": "分析如何使用文化市场机会相关理论解决我国古镇旅游“同质化”现象",
					"queryUser": "付斌·四川音乐学院",
					"queryUserId": "808878297",
					"queryWatched": "0"
				},
				{
					"queryId": "562180502",
					"queryPassing_by": "0",
					"queryReplyCount": "0",
					"queryTime": "2020.12.23",
					"queryTitle": "讨论中西方文化背景下，不同年龄阶段消费者市场细分的区别",
					"queryUser": "付斌·四川音乐学院",
					"queryUserId": "808878297",
					"queryWatched": "0"
				},
				{
					"queryId": "562180500",
					"queryPassing_by": "0",
					"queryReplyCount": "0",
					"queryTime": "2020.12.23",
					"queryTitle": "使用文化市场机会的相关知识分析我国电视剧产业的市场机会",
					"queryUser": "付斌·四川音乐学院",
					"queryUserId": "808878297",
					"queryWatched": "0"
				},
				{
					"queryId": "562180498",
					"queryPassing_by": "0",
					"queryReplyCount": "0",
					"queryTime": "2020.12.23",
					"queryTitle": "分析我国音乐剧市场的文化目标市场选择模式",
					"queryUser": "付斌·四川音乐学院",
					"queryUserId": "808878297",
					"queryWatched": "0"
				},
				{
					"queryId": "562180496",
					"queryPassing_by": "0",
					"queryReplyCount": "0",
					"queryTime": "2020.12.23",
					"queryTitle": "我国动漫产业当前的市场定位是什么？",
					"queryUser": "付斌·四川音乐学院",
					"queryUserId": "808878297",
					"queryWatched": "0"
				},
				{
					"queryId": "562180494",
					"queryPassing_by": "0",
					"queryReplyCount": "0",
					"queryTime": "2020.12.23",
					"queryTitle": "缺少文化市场营销调研会如何影响文化市场定位？",
					"queryUser": "付斌·四川音乐学院",
					"queryUserId": "808878297",
					"queryWatched": "0"
				},
				{
					"queryId": "562180492",
					"queryPassing_by": "0",
					"queryReplyCount": "0",
					"queryTime": "2020.12.23",
					"queryTitle": "分析我国文化产业中电影产业面临的营销环境",
					"queryUser": "付斌·四川音乐学院",
					"queryUserId": "808878297",
					"queryWatched": "0"
				},
				{
					"queryId": "562180490",
					"queryPassing_by": "0",
					"queryReplyCount": "0",
					"queryTime": "2020.12.23",
					"queryTitle": "影响我国文化营销环境的宏观因素有哪些？",
					"queryUser": "付斌·四川音乐学院",
					"queryUserId": "808878297",
					"queryWatched": "0"
				},
				{
					"queryId": "562180489",
					"queryPassing_by": "0",
					"queryReplyCount": "0",
					"queryTime": "2020.12.23",
					"queryTitle": "结合2020年国情，分析我国文化市场营销环境",
					"queryUser": "付斌·四川音乐学院",
					"queryUserId": "808878297",
					"queryWatched": "0"
				},
				{
					"queryId": "562180486",
					"queryPassing_by": "0",
					"queryReplyCount": "0",
					"queryTime": "2020.12.23",
					"queryTitle": "你认为我国目前的文化市场前景如何？",
					"queryUser": "付斌·四川音乐学院",
					"queryUserId": "808878297",
					"queryWatched": "0"
				},
				{
					"queryId": "562180484",
					"queryPassing_by": "0",
					"queryReplyCount": "0",
					"queryTime": "2020.12.23",
					"queryTitle": "学习文化市场营销的重要性体现在哪里？",
					"queryUser": "付斌·四川音乐学院",
					"queryUserId": "808878297",
					"queryWatched": "0"
				},
				{
					"queryId": "562180482",
					"queryPassing_by": "0",
					"queryReplyCount": "0",
					"queryTime": "2020.12.23",
					"queryTitle": "谈谈市场营销和文化市场营销有什么关系？",
					"queryUser": "付斌·四川音乐学院",
					"queryUserId": "808878297",
					"queryWatched": "0"
				},
				{
					"queryId": "30545265",
					"queryPassing_by": "2",
					"queryReplyCount": "0",
					"queryTime": "2018.09.11",
					"queryTitle": "以下哪些属于旧经济时代的特点？",
					"queryUser": "王思怡·武汉纺织大学",
					"queryUserId": "171187267",
					"queryWatched": "5"
				}
			],
			"recruitId": "61181",
			"schoolCount": "0",
			"standard": {
				"· 平时成绩": "30",
				"· 期末考试成绩": "40",
				"· 章测试成绩": "10",
				"· 见面课成绩": "20"
			},
			"termId": "15",
			"termName": "2021春夏",
			"termStatus": "招生中"
		},
		{
			"bbsQaCount": "45",
			"judge": {
				"None": {
					"number": "120",
					"unit": "道"
				},
				"开设周数": {
					"number": "14",
					"unit": "周"
				},
				"授课视频数": {
					"number": "41",
					"unit": "个"
				},
				"测试总次数": {
					"number": "15",
					"unit": "次"
				},
				"测试题总数": {
					"number": "150",
					"unit": "道"
				},
				"考试次数": {
					"number": "2",
					"unit": "次"
				},
				"视频总时长": {
					"number": "420",
					"unit": "分钟"
				},
				"课程公告数": {
					"number": "0",
					"unit": "条"
				},
				"课程资料总数": {
					"number": "0",
					"unit": "个"
				},
				"非视频资源数": {
					"number": "0",
					"unit": "个"
				}
			},
			"personCount": "27",
			"query": [
				{
					"queryId": "561657477",
					"queryPassing_by": "0",
					"queryReplyCount": "0",
					"queryTime": "2020.12.22",
					"queryTitle": "你认为“一带一路”对中国会展营销有哪些影响？",
					"queryUser": "付斌·四川音乐学院",
					"queryUserId": "808878297",
					"queryWatched": "0"
				},
				{
					"queryId": "561657476",
					"queryPassing_by": "0",
					"queryReplyCount": "0",
					"queryTime": "2020.12.22",
					"queryTitle": "你怎么看待我国会展营销目前的发展趋势？",
					"queryUser": "付斌·四川音乐学院",
					"queryUserId": "808878297",
					"queryWatched": "0"
				},
				{
					"queryId": "561657475",
					"queryPassing_by": "0",
					"queryReplyCount": "0",
					"queryTime": "2020.12.22",
					"queryTitle": "如何打造会展品牌？",
					"queryUser": "付斌·四川音乐学院",
					"queryUserId": "808878297",
					"queryWatched": "0"
				},
				{
					"queryId": "561657474",
					"queryPassing_by": "0",
					"queryReplyCount": "0",
					"queryTime": "2020.12.22",
					"queryTitle": "我们可以采取哪些方法来激发人们的文化旅游动机？",
					"queryUser": "付斌·四川音乐学院",
					"queryUserId": "808878297",
					"queryWatched": "0"
				},
				{
					"queryId": "561657473",
					"queryPassing_by": "0",
					"queryReplyCount": "0",
					"queryTime": "2020.12.22",
					"queryTitle": "你是如何理解文化旅游产品的？",
					"queryUser": "付斌·四川音乐学院",
					"queryUserId": "808878297",
					"queryWatched": "0"
				},
				{
					"queryId": "561657472",
					"queryPassing_by": "0",
					"queryReplyCount": "0",
					"queryTime": "2020.12.22",
					"queryTitle": "谈谈文化旅游市场营销政策环境？",
					"queryUser": "付斌·四川音乐学院",
					"queryUserId": "808878297",
					"queryWatched": "0"
				},
				{
					"queryId": "561657471",
					"queryPassing_by": "0",
					"queryReplyCount": "0",
					"queryTime": "2020.12.22",
					"queryTitle": "你认为我国娱乐市场发展的前景如何？",
					"queryUser": "付斌·四川音乐学院",
					"queryUserId": "808878297",
					"queryWatched": "0"
				},
				{
					"queryId": "561657470",
					"queryPassing_by": "0",
					"queryReplyCount": "0",
					"queryTime": "2020.12.22",
					"queryTitle": "你怎么看待娱乐市场与我国文化市场的关系？",
					"queryUser": "付斌·四川音乐学院",
					"queryUserId": "808878297",
					"queryWatched": "0"
				},
				{
					"queryId": "561657469",
					"queryPassing_by": "0",
					"queryReplyCount": "0",
					"queryTime": "2020.12.22",
					"queryTitle": "谈谈对网易云音乐成功的看法？",
					"queryUser": "付斌·四川音乐学院",
					"queryUserId": "808878297",
					"queryWatched": "0"
				},
				{
					"queryId": "561657468",
					"queryPassing_by": "0",
					"queryReplyCount": "0",
					"queryTime": "2020.12.22",
					"queryTitle": "谈谈未来的演出市场将会如何？",
					"queryUser": "付斌·四川音乐学院",
					"queryUserId": "808878297",
					"queryWatched": "0"
				},
				{
					"queryId": "561657467",
					"queryPassing_by": "0",
					"queryReplyCount": "0",
					"queryTime": "2020.12.22",
					"queryTitle": "当前旅游演出市场呈现出什么样的趋势？",
					"queryUser": "付斌·四川音乐学院",
					"queryUserId": "808878297",
					"queryWatched": "0"
				},
				{
					"queryId": "561657466",
					"queryPassing_by": "0",
					"queryReplyCount": "0",
					"queryTime": "2020.12.22",
					"queryTitle": "谈谈传统演出市场是怎样的？",
					"queryUser": "付斌·四川音乐学院",
					"queryUserId": "808878297",
					"queryWatched": "0"
				},
				{
					"queryId": "561657465",
					"queryPassing_by": "0",
					"queryReplyCount": "0",
					"queryTime": "2020.12.22",
					"queryTitle": "你认为我国音像市场发展的前景如何？",
					"queryUser": "付斌·四川音乐学院",
					"queryUserId": "808878297",
					"queryWatched": "0"
				},
				{
					"queryId": "561657464",
					"queryPassing_by": "0",
					"queryReplyCount": "0",
					"queryTime": "2020.12.22",
					"queryTitle": "你怎么看待数字音乐的快速发展？",
					"queryUser": "付斌·四川音乐学院",
					"queryUserId": "808878297",
					"queryWatched": "0"
				},
				{
					"queryId": "561657463",
					"queryPassing_by": "0",
					"queryReplyCount": "0",
					"queryTime": "2020.12.22",
					"queryTitle": "谈谈对当前音像市场现状的认识？",
					"queryUser": "付斌·四川音乐学院",
					"queryUserId": "808878297",
					"queryWatched": "0"
				},
				{
					"queryId": "561657462",
					"queryPassing_by": "0",
					"queryReplyCount": "0",
					"queryTime": "2020.12.22",
					"queryTitle": "你认为互联网的高速发展对报业市场营销有哪些影响？",
					"queryUser": "付斌·四川音乐学院",
					"queryUserId": "808878297",
					"queryWatched": "0"
				},
				{
					"queryId": "561657460",
					"queryPassing_by": "0",
					"queryReplyCount": "0",
					"queryTime": "2020.12.22",
					"queryTitle": "你怎么看待报业市场的促销策略？",
					"queryUser": "付斌·四川音乐学院",
					"queryUserId": "808878297",
					"queryWatched": "0"
				},
				{
					"queryId": "561657459",
					"queryPassing_by": "0",
					"queryReplyCount": "0",
					"queryTime": "2020.12.22",
					"queryTitle": "谈谈对当前报业市场发展趋势的认识？",
					"queryUser": "付斌·四川音乐学院",
					"queryUserId": "808878297",
					"queryWatched": "0"
				},
				{
					"queryId": "561657457",
					"queryPassing_by": "0",
					"queryReplyCount": "0",
					"queryTime": "2020.12.22",
					"queryTitle": "图书市场营销如何才以更好的实现线上线下融合发展？",
					"queryUser": "付斌·四川音乐学院",
					"queryUserId": "808878297",
					"queryWatched": "0"
				},
				{
					"queryId": "561657456",
					"queryPassing_by": "0",
					"queryReplyCount": "0",
					"queryTime": "2020.12.22",
					"queryTitle": "怎样测量图书营销渠道中中间商的绩效？",
					"queryUser": "付斌·四川音乐学院",
					"queryUserId": "808878297",
					"queryWatched": "0"
				},
				{
					"queryId": "561657455",
					"queryPassing_by": "0",
					"queryReplyCount": "0",
					"queryTime": "2020.12.22",
					"queryTitle": "参考群体在读者购买行为中的作用是什么？",
					"queryUser": "付斌·四川音乐学院",
					"queryUserId": "808878297",
					"queryWatched": "0"
				},
				{
					"queryId": "561657454",
					"queryPassing_by": "0",
					"queryReplyCount": "0",
					"queryTime": "2020.12.22",
					"queryTitle": "市场营销管理的实质为什么是“需求管理”？",
					"queryUser": "付斌·四川音乐学院",
					"queryUserId": "808878297",
					"queryWatched": "0"
				},
				{
					"queryId": "561657453",
					"queryPassing_by": "0",
					"queryReplyCount": "0",
					"queryTime": "2020.12.22",
					"queryTitle": "文化市场营销部门与其他部门之间如何才能建立起和谐有效的关系？",
					"queryUser": "付斌·四川音乐学院",
					"queryUserId": "808878297",
					"queryWatched": "0"
				},
				{
					"queryId": "561657451",
					"queryPassing_by": "0",
					"queryReplyCount": "0",
					"queryTime": "2020.12.22",
					"queryTitle": "文化市场营销部门在文化企业计划中起到怎样的作用？",
					"queryUser": "付斌·四川音乐学院",
					"queryUserId": "808878297",
					"queryWatched": "0"
				},
				{
					"queryId": "561657449",
					"queryPassing_by": "0",
					"queryReplyCount": "0",
					"queryTime": "2020.12.22",
					"queryTitle": "什么是文化产品品牌？文化产品品牌有哪些功能？",
					"queryUser": "付斌·四川音乐学院",
					"queryUserId": "808878297",
					"queryWatched": "0"
				},
				{
					"queryId": "561657448",
					"queryPassing_by": "0",
					"queryReplyCount": "0",
					"queryTime": "2020.12.22",
					"queryTitle": "文化产品在生命周期不同阶段的营销策略各有哪些？",
					"queryUser": "付斌·四川音乐学院",
					"queryUserId": "808878297",
					"queryWatched": "0"
				},
				{
					"queryId": "561657446",
					"queryPassing_by": "0",
					"queryReplyCount": "0",
					"queryTime": "2020.12.22",
					"queryTitle": "《英雄联盟》的营销组合运用有哪些方面值得借鉴？",
					"queryUser": "付斌·四川音乐学院",
					"queryUserId": "808878297",
					"queryWatched": "0"
				},
				{
					"queryId": "561657445",
					"queryPassing_by": "0",
					"queryReplyCount": "0",
					"queryTime": "2020.12.22",
					"queryTitle": "文化企业如何才能较好地把握消费者的消费行为？",
					"queryUser": "付斌·四川音乐学院",
					"queryUserId": "808878297",
					"queryWatched": "0"
				},
				{
					"queryId": "561657444",
					"queryPassing_by": "0",
					"queryReplyCount": "0",
					"queryTime": "2020.12.22",
					"queryTitle": "文化消费者的行为过程对文化企业有什么作用？",
					"queryUser": "付斌·四川音乐学院",
					"queryUserId": "808878297",
					"queryWatched": "0"
				},
				{
					"queryId": "561657442",
					"queryPassing_by": "0",
					"queryReplyCount": "0",
					"queryTime": "2020.12.22",
					"queryTitle": "文化消费者满意与忠诚的关系如何？",
					"queryUser": "付斌·四川音乐学院",
					"queryUserId": "808878297",
					"queryWatched": "0"
				},
				{
					"queryId": "561657441",
					"queryPassing_by": "0",
					"queryReplyCount": "0",
					"queryTime": "2020.12.22",
					"queryTitle": "用市场追随者的相关理论分析四川电视台的困境",
					"queryUser": "付斌·四川音乐学院",
					"queryUserId": "808878297",
					"queryWatched": "0"
				},
				{
					"queryId": "561657440",
					"queryPassing_by": "0",
					"queryReplyCount": "0",
					"queryTime": "2020.12.22",
					"queryTitle": "讨论如何通过差异化战略解决我国综艺节目缺少创新性的问题",
					"queryUser": "付斌·四川音乐学院",
					"queryUserId": "808878297",
					"queryWatched": "0"
				},
				{
					"queryId": "561657437",
					"queryPassing_by": "0",
					"queryReplyCount": "0",
					"queryTime": "2020.12.22",
					"queryTitle": "使用本章节相关内容分析《乘风破浪的姐姐》节目的竞争策略",
					"queryUser": "付斌·四川音乐学院",
					"queryUserId": "808878297",
					"queryWatched": "0"
				},
				{
					"queryId": "561657436",
					"queryPassing_by": "0",
					"queryReplyCount": "0",
					"queryTime": "2020.12.22",
					"queryTitle": "分析如何使用文化市场机会相关理论解决我国古镇旅游“同质化”现象",
					"queryUser": "付斌·四川音乐学院",
					"queryUserId": "808878297",
					"queryWatched": "0"
				},
				{
					"queryId": "561657433",
					"queryPassing_by": "0",
					"queryReplyCount": "0",
					"queryTime": "2020.12.22",
					"queryTitle": "讨论中西方文化背景下，不同年龄阶段消费者市场细分的区别",
					"queryUser": "付斌·四川音乐学院",
					"queryUserId": "808878297",
					"queryWatched": "0"
				},
				{
					"queryId": "561657431",
					"queryPassing_by": "0",
					"queryReplyCount": "0",
					"queryTime": "2020.12.22",
					"queryTitle": "使用文化市场机会的相关知识分析我国电视剧产业的市场机会",
					"queryUser": "付斌·四川音乐学院",
					"queryUserId": "808878297",
					"queryWatched": "0"
				},
				{
					"queryId": "561657430",
					"queryPassing_by": "0",
					"queryReplyCount": "0",
					"queryTime": "2020.12.22",
					"queryTitle": "分析我国音乐剧市场的文化目标市场选择模式",
					"queryUser": "付斌·四川音乐学院",
					"queryUserId": "808878297",
					"queryWatched": "0"
				},
				{
					"queryId": "561657429",
					"queryPassing_by": "0",
					"queryReplyCount": "0",
					"queryTime": "2020.12.22",
					"queryTitle": "我国动漫产业当前的市场定位是什么？",
					"queryUser": "付斌·四川音乐学院",
					"queryUserId": "808878297",
					"queryWatched": "0"
				},
				{
					"queryId": "561657428",
					"queryPassing_by": "0",
					"queryReplyCount": "0",
					"queryTime": "2020.12.22",
					"queryTitle": "缺少文化市场营销调研会如何影响文化市场定位？",
					"queryUser": "付斌·四川音乐学院",
					"queryUserId": "808878297",
					"queryWatched": "0"
				},
				{
					"queryId": "561657426",
					"queryPassing_by": "0",
					"queryReplyCount": "0",
					"queryTime": "2020.12.22",
					"queryTitle": "分析我国文化产业中电影产业面临的营销环境",
					"queryUser": "付斌·四川音乐学院",
					"queryUserId": "808878297",
					"queryWatched": "0"
				},
				{
					"queryId": "561657424",
					"queryPassing_by": "0",
					"queryReplyCount": "0",
					"queryTime": "2020.12.22",
					"queryTitle": "影响我国文化营销环境的宏观因素有哪些？",
					"queryUser": "付斌·四川音乐学院",
					"queryUserId": "808878297",
					"queryWatched": "0"
				},
				{
					"queryId": "561657423",
					"queryPassing_by": "0",
					"queryReplyCount": "0",
					"queryTime": "2020.12.22",
					"queryTitle": "结合2020年国情，分析我国文化市场营销环境",
					"queryUser": "付斌·四川音乐学院",
					"queryUserId": "808878297",
					"queryWatched": "0"
				},
				{
					"queryId": "561657422",
					"queryPassing_by": "0",
					"queryReplyCount": "0",
					"queryTime": "2020.12.22",
					"queryTitle": "你认为我国目前的文化市场前景如何？",
					"queryUser": "付斌·四川音乐学院",
					"queryUserId": "808878297",
					"queryWatched": "0"
				},
				{
					"queryId": "561657420",
					"queryPassing_by": "0",
					"queryReplyCount": "0",
					"queryTime": "2020.12.22",
					"queryTitle": "学习文化市场营销的重要性体现在哪里？",
					"queryUser": "付斌·四川音乐学院",
					"queryUserId": "808878297",
					"queryWatched": "0"
				},
				{
					"queryId": "561657419",
					"queryPassing_by": "0",
					"queryReplyCount": "0",
					"queryTime": "2020.12.22",
					"queryTitle": "谈谈市场营销和文化市场营销有什么关系？",
					"queryUser": "付斌·四川音乐学院",
					"queryUserId": "808878297",
					"queryWatched": "0"
				}
			],
			"recruitId": "60924",
			"recruitRunningDto": {
				"courseEndTime": "2021-02-28",
				"courseId": 1000060041,
				"courseStartTime": "2020-08-01",
				"examEndTime": "2021-03-10",
				"examStartTime": "2021-03-01",
				"isRunning": 0,
				"learnCount": 27,
				"recruitId": 61346,
				"studyMode": 1,
				"termId": 14
			},
			"schoolCount": "0",
			"standard": {
				"· 平时成绩": "50",
				"· 期末考试成绩": "40",
				"· 章测试成绩": "10",
				"· 见面课成绩": "0"
			},
			"termId": "14",
			"termName": "2020秋冬",
			"termStatus": "已运行"
		}
	]
}